…
	#remove duplicated jobs based on exact description
	full_df <- full_df %>% distinct(job_description, .keep_all= TRUE)

	tbl_df (full_df)

## Warning: `tbl_df()` was deprecated in dplyr 1.0.0.
	## Please use `tibble::as_tibble()` instead.

## # A tibble: 57 x 4
	##    job_title                company_name     links            job_description                 
	##    <chr>                    <chr>            <chr>            <chr>                           
	##  1 Beca Data Scientist y B~ ""               /rc/clk?jk=1f7f~ "Dentro de nuestra Dirección de~
	##  2 Data Scientist           ""               /rc/clk?jk=5983~ "Contribuirás a acabar con el h~
	##  3 Data Scientist, Food Di~ ""               /rc/clk?jk=bf36~ "WHO WE ARE AND WHY YOU SHOULD ~
	##  4 Data Scientist           "Accion Contra ~ /rc/clk?jk=046c~ "We are looking to hire a full ~
	##  5 Data Scientist           ""               /rc/clk?jk=c17a~ "Madrid\nTodas las vacantes abi~
	##  6 Becario de Data Scienti~ "IKEA"           /rc/clk?jk=86d7~ "Quienes somos\n\nEn indigitall~
	##  7 Data Scientist Intern    ""               /rc/clk?jk=ca37~ "We are looking for an enthusia~
	##  8 Data scientist Junior    "SpotLab"        /rc/clk?jk=5d60~ "Descripción de la empresa\n¿Qu~
	##  9 Data Scientist/Científi~ ""               /rc/clk?jk=4833~ "Data Scientist/Científico de D~
	## 10 DATA SCIENTIST           "BBVA Next Tech~ /rc/clk?jk=d8ff~ "Actualmente buscamos un Data S~
	## # ... with 47 more rows
…
